<?xml version="1.0" encoding="UTF-8"?>
<osm version="0.6" generator="CGImap 0.3.3 (28791 thorn-03.openstreetmap.org)" copyright="OpenStreetMap and contributors" attribution="http://www.openstreetmap.org/copyright" license="http://opendatacommons.org/licenses/odbl/1-0/">
 <bounds minlat="41.9704500" minlon="-87.6928300" maxlat="41.9758200" maxlon="-87.6894800"/>
 <node id="261114295" visible="true" version="7" changeset="11129782" timestamp="2012-03-28T18:31:23Z" user="bbmiller" uid="451048" lat="41.9730791" lon="-87.6866303"/>
 <node id="261114296" visible="true" version="6" changeset="8448766" timestamp="2011-06-15T17:04:54Z" user="bbmiller" uid="451048" lat="41.9730416" lon="-87.6878512"/>
 <node id="261114299" visible="true" version="5" changeset="8581395" timestamp="2011-06-29T14:14:14Z" user="bbmiller" uid="451048" lat="41.9729565" lon="-87.6939548"/>
 <node id="261146436" visible="true" version="5" changeset="8581395" timestamp="2011-06-29T14:14:14Z" user="bbmiller" uid="451048" lat="41.9707380" lon="-87.6976025"/>
 <node id="261147304" visible="true" version="7" changeset="8581395" timestamp="2011-06-29T14:14:15Z" user="bbmiller" uid="451048" lat="41.9740068" lon="-87.6988576"/>
 <node id="261224274" visible="true" version="5" changeset="8581395" timestamp="2011-06-29T14:14:14Z" user="bbmiller" uid="451048" lat="41.9707656" lon="-87.6938669"/>
 <node id="293816175" visible="true" version="47" changeset="8448766" timestamp="2011-06-15T16:55:37Z" user="bbmiller" uid="451048" lat="41.9730154" lon="-87.6890403"/>
 <node id="305896090" visible="true" version="37" changeset="15348240" timestamp="2013-03-13T07:46:29Z" user="Umbugbene" uid="567034" lat="41.9749225" lon="-87.6891198"/>
 <node id="317636974" visible="true" version="12" changeset="15348240" timestamp="2013-03-13T08:02:56Z" user="Umbugbene" uid="567034" lat="41.9740292" lon="-87.7012430"/>
 <node id="317636971" visible="true" version="13" changeset="15348240" timestamp="2013-03-13T08:08:01Z" user="Umbugbene" uid="567034" lat="41.9740556" lon="-87.6979712"/>
 <node id="317637399" visible="true" version="2" changeset="14927972" timestamp="2013-02-05T22:43:49Z" user="Umbugbene" uid="567034" lat="41.9705609" lon="-87.7012048"/>
 <node id="317637398" visible="true" version="2" changeset="14927972" timestamp="2013-02-05T22:43:49Z" user="Umbugbene" uid="567034" lat="41.9706972" lon="-87.7012109"/>
 <node id="365214872" visible="true" version="3" changeset="8448766" timestamp="2011-06-15T17:04:54Z" user="bbmiller" uid="451048" lat="41.9731130" lon="-87.6847998"/>
 <node id="261299091" visible="true" version="6" changeset="8581395" timestamp="2011-06-29T14:14:15Z" user="bbmiller" uid="451048" lat="41.9747482" lon="-87.6988886"/>
 <node id="261114294" visible="true" version="6" changeset="8448766" timestamp="2011-06-15T17:04:54Z" user="bbmiller" uid="451048" lat="41.9731219" lon="-87.6841979"/>
 <node id="261210804" visible="true" version="4" changeset="3359748" timestamp="2009-12-13T00:36:09Z" user="woodpeck_fixbot" uid="147510" lat="41.9707217" lon="-87.7000019"/>
 <node id="261221422" visible="true" version="7" changeset="8581395" timestamp="2011-06-29T14:14:15Z" user="bbmiller" uid="451048" lat="41.9748542" lon="-87.6922652"/>
 <node id="261221424" visible="true" version="7" changeset="8581395" timestamp="2011-06-29T14:14:15Z" user="bbmiller" uid="451048" lat="41.9758794" lon="-87.6923639">
  <tag k="highway" v="traffic_signals"/>
 </node>
  <node id="2406124091" visible="true" version="2" changeset="17206049" timestamp="2013-08-03T16:43:42Z" user="linuxUser16" uid="1219059" lat="41.9757030" lon="-87.6921867">
  <tag k="addr:city" v="Chicago"/>
  <tag k="addr:housenumber" v="5157"/>
  <tag k="addr:postcode" v="60625"/>
  <tag k="addr:street" v="North Lincoln Ave"/>
  <tag k="amenity" v="restaurant"/>
  <tag k="cuisine" v="mexican"/>
  <tag k="name" v="La Cabana De Don Luis"/>
  <tag k="outdoor_seating" v="no"/>
  <tag k="phone" v="1 (773)-271-5176"/>
  <tag k="smoking" v="no"/>
  <tag k="takeaway" v="yes"/>
 </node>
  <node id="2636084635" visible="true" version="1" changeset="20187349" timestamp="2014-01-25T01:56:10Z" user="linuxUser16" uid="1219059" lat="41.9705219" lon="-87.6900344">
  <tag k="addr:city" v="Chicago"/>
  <tag k="addr:country" v="US"/>
  <tag k="addr:housenumber" v="4874"/>
  <tag k="addr:postcode" v="60625"/>
  <tag k="addr:state" v="Illinois"/>
  <tag k="addr:street" v="N. Lincoln Ave"/>
  <tag k="name" v="Matty Ks"/>
  <tag k="phone" v="(773)-654-1347"/>
  <tag k="shop" v="doityourself"/>
  <tag k="source" v="GPS"/>
 </node>
 <node id="261198953" visible="true" version="6" changeset="8581395" timestamp="2011-06-29T14:14:13Z" user="bbmiller" uid="451048" lat="41.9707413" lon="-87.6963097"/>
 <node id="757860928" visible="true" version="2" changeset="5288876" timestamp="2010-07-22T16:16:51Z" user="uboot" uid="26299" lat="41.9747374" lon="-87.6920102">
  <tag k="amenity" v="fast_food"/>
  <tag k="cuisine" v="sausage"/>
  <tag k="name" v="Shelly's Tasty Freeze"/>
 </node>
  <way id="258219703" visible="true" version="1" changeset="20187382" timestamp="2014-01-25T02:01:54Z" user="linuxUser16" uid="1219059">
  <nd ref="2636086179"/>
  <nd ref="2636086178"/>
  <nd ref="2636086177"/>
  <nd ref="2636086176"/>
  <tag k="highway" v="service"/>
 </way>
 <node id="1683602133" version="2" timestamp="2012-03-20T18:56:44Z" uid="634589" user="Jacobs Studios" changeset="11043902" lat="42.1251718" lon="-88.0780576">
    <tag k="addr:housename" v="Village Hall"/>
    <tag k="addr:housenumber" v="1400"/>
    <tag k="addr:postcode" v="60067"/>
    <tag k="addr:street" v="Baldwin Rd."/>
    <tag k="amenity" v="townhall"/>
    <tag k="name" v="Village Hall"/>
 </node>
 <way id="209809850" visible="true" version="1" changeset="15353317" timestamp="2013-03-13T15:58:04Z" user="chicago-buildings" uid="674454">
  <nd ref="2199822281"/>
  <nd ref="2199822390"/>
  <nd ref="2199822392"/>
  <nd ref="2199822369"/>
  <nd ref="2199822370"/>
  <nd ref="2199822284"/>
  <nd ref="2199822281"/>
  <tag k="addr:housenumber" v="1412"/>
  <tag k="addr:street" v="West Lexington St."/>
  <tag k="addr:street:name" v="Lexington"/>
   <tag k="addr:street:prefix" v="West"/>
  <tag k="addr:street:type" v="Street"/>
  <tag k="building" v="yes"/>
  <tag k="building:levels" v="1"/>
  <tag k="chicago:building_id" v="366409"/>
 </way>
 <relation id="1557627" visible="true" version="2" changeset="14326854" timestamp="2012-12-19T05:32:37Z" user="fredr" uid="939355">
  <member type="node" ref="1258927212" role="via"/>
  <member type="way" ref="110160127" role="from"/>
  <member type="way" ref="34073105" role="to"/>
  <tag k="restriction" v="only_right_turn"/>
  <tag k="type" v="restriction"/>
 </relation>
</osm>